TheLudoGraphicShowVGADisplayAyubAnsari/Ludo Project.sim/sim_1/behav/xsim/vga_ludo.vcd
$date
   Sun Nov 16 19:08:52 2025
$end
$version
  2020.1
$end
$timescale
  1ps
$end
$scope module vga_controller_tb $end
$var reg 1 ! clk_100MHz $end
$var reg 1 " reset $end
$var wire 1 # h_sync $end
$var wire 1 $ v_sync $end
$var wire 4 % red [3:0] $end
$var wire 4 & green [3:0] $end
$var wire 4 ' blue [3:0] $end
$scope module dut $end
$var wire 1 ( clk_100MHz $end
$var wire 1 ) reset $end
$var wire 1 # h_sync $end
$var wire 1 $ v_sync $end
$var wire 4 % red [3:0] $end
$var wire 4 & green [3:0] $end
$var wire 4 ' blue [3:0] $end
$var wire 1 * clk_25MHz $end
$var wire 10 + h_count [9:0] $end
$var wire 10 , v_count [9:0] $end
$var wire 1 - video_on $end
$var wire 10 . pixel_x [9:0] $end
$var wire 10 / pixel_y [9:0] $end
$var wire 1 0 h_sync_end $end
$scope module u_clk_div $end
$var wire 1 ( clk_100MHz $end
$var wire 1 ) reset $end
$var wire 1 * clk_25MHz $end
$var reg 2 1 count [1:0] $end
$upscope $end
$scope module u_h_counter $end
$var wire 1 * clk_25MHz $end
$var wire 1 ) reset $end
$var reg 10 2 h_count [9:0] $end
$upscope $end
$scope module u_v_counter $end
$var wire 1 * clk_25MHz $end
$var wire 1 ) reset $end
$var wire 1 0 h_sync_end $end
$var reg 10 3 v_count [9:0] $end
$upscope $end
$scope module u_vga_sync $end
$var wire 1 * clk_25MHz $end
$var wire 1 ) reset $end
$var wire 10 + h_count [9:0] $end
$var wire 10 , v_count [9:0] $end
$var wire 1 # h_sync $end
$var wire 1 $ v_sync $end
$var wire 1 - video_on $end
$var wire 10 . pixel_x [9:0] $end
$var wire 10 / pixel_y [9:0] $end
$var wire 1 4 h_sync_end $end
$var parameter 32 5 H_DISPLAY [31:0] $end
$var parameter 32 6 H_FRONT [31:0] $end
$var parameter 32 7 H_SYNC [31:0] $end
$var parameter 32 8 H_BACK [31:0] $end
$var parameter 32 9 V_DISPLAY [31:0] $end
$var parameter 32 : V_FRONT [31:0] $end
$var parameter 32 ; V_SYNC [31:0] $end
$var parameter 32 < V_BACK [31:0] $end
$upscope $end
$scope module u_pixel_gen $end
$var wire 1 * clk_d $end
$var wire 10 . pixel_x [9:0] $end
$var wire 10 / pixel_y [9:0] $end
$var wire 1 - video_on $end
$var reg 4 = red [3:0] $end
$var reg 4 > green [3:0] $end
$var reg 4 ? blue [3:0] $end
$var parameter 12 @ BLACK [11:0] $end
$var parameter 12 A YELLOW [11:0] $end
$var parameter 12 B BROWN [11:0] $end
$var parameter 12 C GREEN [11:0] $end
$var parameter 12 D BLUE [11:0] $end
$var parameter 32 E BASE_X [31:0] $end
$var parameter 32 F BASE_Y [31:0] $end
$var parameter 32 G BOX [31:0] $end
$var parameter 32 H RAD [31:0] $end
$var parameter 32 I C24_X1 [31:0] $end
$var parameter 32 J C24_Y1 [31:0] $end
$var parameter 32 K C24_X2 [31:0] $end
$var parameter 32 L C24_Y2 [31:0] $end
$var parameter 32 M C25_X1 [31:0] $end
$var parameter 32 N C25_Y1 [31:0] $end
$var parameter 32 O C25_X2 [31:0] $end
$var parameter 32 P C25_Y2 [31:0] $end
$var parameter 32 Q C26_X1 [31:0] $end
$var parameter 32 R C26_Y1 [31:0] $end
$var parameter 32 S C26_X2 [31:0] $end
$var parameter 32 T C26_Y2 [31:0] $end
$var parameter 32 U C27_X1 [31:0] $end
$var parameter 32 V C27_Y1 [31:0] $end
$var parameter 32 W C27_X2 [31:0] $end
$var parameter 32 X C27_Y2 [31:0] $end
$scope function abs $end
$var integer 32 Y abs $end
$var integer 32 Z x $end
$upscope $end
$upscope $end
$upscope $end
$upscope $end
$enddefinitions $end
#0
$dumpvars
0!
1"
1#
1$
b0 %
b0 &
b0 '
0(
1)
0*
b0 +
b0 ,
1-
b0 .
b0 /
00
b0 1
b0 2
b0 3
04
b1010000000 5
b10000 6
b1100000 7
b110000 8
b111100000 9
b1010 :
b10 ;
b100001 <
b0 =
b0 >
b0 ?
b0 @
b111111110000 A
b100000100000 B
b11110000 C
b1111 D
b1100100 E
b101000 F
b1010000 G
b1111 H
b1000110000 I
b10100000 J
b1001011000 K
b10100000 L
b1010000000 M
b10100000 N
b1010101000 O
b10100000 P
b110010000 Q
b1101110000 R
b110111000 S
b1101110000 T
b101000000 U
b1101110000 V
b101101000 W
b1101110000 X
bx Y
bx Z
$end
#5000
1!
1(
b0 1
#10000
0!
0(
#15000
1!
1(
b0 1
#20000
0!
0(
#25000
1!
1(
b0 1
#30000
0!
0(
#35000
1!
1(
b0 1
#40000
0!
0(
#45000
1!
1(
b0 1
#50000
0!
0(
#55000
1!
1(
b0 1
#60000
0!
0(
#65000
1!
1(
b0 1
#70000
0!
0(
#75000
1!
1(
b0 1
#80000
0!
0(
#85000
1!
1(
b0 1
#90000
0!
0(
#95000
1!
1(
b0 1
#100000
0!
0"
0(
0)
#105000
1!
1(
b1 1
#110000
0!
0(
#115000
1!
1(
1*
b1 +
b1 .
b10 1
b1 2
#120000
0!
0(
#125000
1!
1(
b11 1
#130000
0!
0(
#135000
1!
1(
0*
b0 1
#140000
0!
0(
#145000
1!
1(
b1 1
#150000
0!
0(
#155000
1!
1(
1*
b10 +
b10 .
b10 1
b10 2
#160000
0!
0(
#165000
1!
1(
b11 1
#170000
0!
0(
#175000
1!
1(
0*
b0 1
#180000
0!
0(
#185000
1!
1(
b1 1
#190000
0!
0(
#195000
1!
1(
1*
b11 +
b11 .
b10 1
b11 2
#200000
0!
0(
#205000
1!
1(
b11 1
#210000
0!
0(
#215000
1!
1(
0*
b0 1
#220000
0!
0(
#225000
1!
1(
b1 1
#230000
0!
0(
#235000
1!
1(
1*
b100 +
b100 .
b10 1
b100 2
#240000
0!
0(
#245000
1!
1(
b11 1
#250000
0!
0(
#255000
1!
1(
0*
b0 1
#260000
0!
0(
#265000
1!
1(
b1 1
#270000
0!
0(
#275000
1!
1(
1*
b101 +
b101 .
b10 1
b101 2
#280000
0!
0(
#285000
1!
1(
b11 1
#290000
0!
0(
#295000
1!
1(
0*
b0 1
#300000
0!
0(
#305000
1!
1(
b1 1
#310000
0!
0(
#315000
1!
1(
1*
b110 +
b110 .
b10 1
b110 2
#320000
0!
0(
#325000
1!
1(
b11 1
#330000
0!
0(
#335000
1!
1(
0*
b0 1
#340000
0!
0(
#345000
1!
1(
b1 1
#350000
0!
0(
#355000
1!
1(
1*
b111 +
b111 .
b10 1
b111 2
#360000
0!
0(
#365000
1!
1(
b11 1
#370000
0!
0(
#375000
1!
1(
0*
b0 1
#380000
0!
0(
#385000
1!
1(
b1 1
#390000
0!
0(
#395000
1!
1(
1*
b1000 +
b1000 .
b10 1
b1000 2
#400000
0!
0(
#405000
1!
1(
b11 1
#410000
0!
0(
#415000
1!
1(
0*
b0 1
#420000
0!
0(
#425000
1!
1(
b1 1
#430000
0!
0(
#435000
1!
1(
1*
b1001 +
b1001 .
b10 1
b1001 2
#440000
0!
0(
#445000
1!
1(
b11 1
#450000
0!
0(
#455000
1!
1(
0*
b0 1
#460000
0!
0(
#465000
1!
1(
b1 1
#470000
0!
0(
#475000
1!
1(
1*
b1010 +
b1010 .
b10 1
b1010 2
#480000
0!
0(
#485000
1!
1(
b11 1
#490000
0!
0(
#495000
1!
1(
0*
b0 1
#500000
0!
0(
#505000
1!
1(
b1 1
#510000
0!
0(
#515000
1!
1(
1*
b1011 +
b1011 .
b10 1
b1011 2
#520000
0!
0(
#525000
1!
1(
b11 1
#530000
0!
0(
#535000
1!
1(
0*
b0 1
#540000
0!
0(
#545000
1!
1(
b1 1
#550000
0!
0(
#555000
1!
1(
1*
b1100 +
b1100 .
b10 1
b1100 2
#560000
0!
0(
#565000
1!
1(
b11 1
#570000
0!
0(
#575000
1!
1(
0*
b0 1
#580000
0!
0(
#585000
1!
1(
b1 1
#590000
0!
0(
#595000
1!
1(
1*
b1101 +
b1101 .
b10 1
b1101 2
#600000
0!
0(
#605000
1!
1(
b11 1
#610000
0!
0(
#615000
1!
1(
0*
b0 1
#620000
0!
0(
#625000
1!
1(
b1 1
#630000
0!
0(
#635000
1!
1(
1*
b1110 +
b1110 .
b10 1
b1110 2
#640000
0!
0(
#645000
1!
1(
b11 1
#650000
0!
0(
#655000
1!
1(
0*
b0 1
#660000
0!
0(
#665000
1!
1(
b1 1
#670000
0!
0(
#675000
1!
1(
1*
b1111 +
b1111 .
b10 1
b1111 2
#680000
0!
0(
#685000
1!
1(
b11 1
#690000
0!
0(
#695000
1!
1(
0*
b0 1
#700000
0!
0(
#705000
1!
1(
b1 1
#710000
0!
0(
#715000
1!
1(
1*
b10000 +
b10000 .
b10 1
b10000 2
#720000
0!
0(
#725000
1!
1(
b11 1
#730000
0!
0(
#735000
1!
1(
0*
b0 1
#740000
0!
0(
#745000
1!
1(
b1 1
#750000
0!
0(
#755000
1!
1(
1*
b10001 +
b10001 .
b10 1
b10001 2
#760000
0!
0(
#765000
1!
1(
b11 1
#770000
0!
0(
#775000
1!
1(
0*
b0 1
#780000
0!
0(
#785000
1!
1(
b1 1
#790000
0!
0(
#795000
1!
1(
1*
b10010 +
b10010 .
b10 1
b10010 2
#800000
0!
0(
#805000
1!
1(
b11 1
#810000
0!
0(
#815000
1!
1(
0*
b0 1
#820000
0!
0(
#825000
1!
1(
b1 1
#830000
0!
0(
#835000
1!
1(
1*
b10011 +
b10011 .
b10 1
b10011 2
#840000
0!
0(
#845000
1!
1(
b11 1
#850000
0!
0(
#855000
1!
1(
0*
b0 1
#860000
0!
0(
#865000
1!
1(
b1 1
#870000
0!
0(
#875000
1!
1(
1*
b10100 +
b10100 .
b10 1
b10100 2
#880000
0!
0(
#885000
1!
1(
b11 1
#890000
0!
0(
#895000
1!
1(
0*
b0 1
#900000
0!
0(
#905000
1!
1(
b1 1
#910000
0!
0(
#915000
1!
1(
1*
b10101 +
b10101 .
b10 1
b10101 2
#920000
0!
0(
#925000
1!
1(
b11 1
#930000
0!
0(
#935000
1!
1(
0*
b0 1
#940000
0!
0(
#945000
1!
1(
b1 1
#950000
0!
0(
#955000
1!
1(
1*
b10110 +
b10110 .
b10 1
b10110 2
#960000
0!
0(
#965000
1!
1(
b11 1
#970000
0!
0(
#975000
1!
1(
0*
b0 1
#980000
0!
0(
#985000
1!
1(
b1 1
#990000
0!
0(
#995000
1!
1(
1*
b10111 +
b10111 .
b10 1
b10111 2
